********************************************************************************
DUPLICATOR-LITE PACKAGE-LOG: 22.10.2018 12:42
NOTICE: Do NOT post to public sites or forums 
********************************************************************************
VERSION:	1.2.52
WORDPRESS:	4.9.6
PHP INFO:	7.0.32-0ubuntu0.16.04.1 | SAPI: fpm-fcgi
SERVER:		nginx/1.14.0 
PHP TIME LIMIT: (0) no time limit imposed 
PHP MAX MEMORY: 2048M (128M default) 
MEMORY STACK: 10MB 

********************************************************************************
DATABASE:
********************************************************************************
BUILD MODE:   MYSQLDUMP
MYSQLTIMEOUT: 5000
MYSQLDUMP:    Is Supported 
FILTERED: [] 
RESPONSE: Ran from /usr/bin/mysqldump 
TABLES: total:17 | filtered:0 | create:17 
SQL CREATED: 20181022_chastnyjdetskijsadakademiya_44bd600184a89ffa8717_20181022124206_database.sql 
SQL FILE SIZE: 10.35MB (10855224) 
SQL FILE TIME: 2018-10-22 12:42:11 
SQL RUNTIME: 1.34 sec. 

******************************************************************************** 
ARCHIVE (ZIP): 
******************************************************************************** 
ARCHIVE DIR:  /var/www/akademia-detstva.od.ua/htdocs/web/wp 
ARCHIVE FILE: 20181022_chastnyjdetskijsadakademiya_44bd600184a89ffa8717_20181022124206_archive.zip 
FILTERS: *OFF* 
DIRS:
	not set 
FILES:
	not set 
EXTS:  not set 
---------------------------------------- 
COMPRESSING 
SIZE:	0B 
STATS:	Dirs 0 | Files 0 
SQL ADDED: 20181022_chastnyjdetskijsadakademiya_44bd600184a89ffa8717_20181022124206_database.sql 
ZipArchive Object
(
    [status] => 0
    [statusSys] => 0
    [numFiles] => 1
    [filename] => /var/www/akademia-detstva.od.ua/htdocs/web/wp/wp-snapshots/tmp/20181022_chastnyjdetskijsadakademiya_44bd600184a89ffa8717_20181022124206_archive.zip
    [comment] => 
)
 
COMPRESSION RESULT: '1' 
COMPRESSED SIZE: 1.15MB 
ARCHIVE RUNTIME: 0.59 sec. 
MEMORY STACK: 10MB 

******************************************************************************** 
MAKE INSTALLER: 
******************************************************************************** 
Build Start 
Build Finished 
Preparing for use 
PACK SIZE:  
Template parsed with new data 
Complete [/var/www/akademia-detstva.od.ua/htdocs/web/wp/wp-snapshots/tmp/20181022_chastnyjdetskijsadakademiya_44bd600184a89ffa8717_20181022124206_installer.php] 
Added to archive 

******************************************************************************** 
INTEGRITY CHECKS: 
******************************************************************************** 
SQL File: 10.35MB 
Installer File: 514.35KB 
Archive File: 1.15MB  

********************************************************************************
RECORD ID:[1]
TOTAL PROCESS RUNTIME: 2.47 sec.
PEAK PHP MEMORY USED: 12MB
DONE PROCESSING => 20181022_chastnyjdetskijsadakademiya 22.10.2018 12:42
 
